id;order_confirm;waitting_product;shipping;delivered;status
1;true;false;false;true;true
2;true;true;false;false;true
3;true;false;true;false;true
4;true;true;true;false;true
5;true;true;true;false;true
6;false;true;false;true;false
7;true;false;true;false;true
8;false;false;false;true;false
9;true;false;false;false;false
10;false;false;false;true;true
