{
  "fluentMethods": true,
  "clientRootFolder": "",
  "relationships": [
    {
      "relationshipName": "user",
      "otherEntityName": "user",
      "relationshipType": "many-to-one",
      "otherEntityField": "login",
      "ownerSide": true,
      "otherEntityRelationshipName": "listCart"
    },
    {
      "relationshipName": "product",
      "otherEntityName": "product",
      "relationshipType": "many-to-one",
      "otherEntityField": "id",
      "otherEntityRelationshipName": "listCart"
    },
    {
      "relationshipName": "size",
      "otherEntityName": "size",
      "relationshipType": "many-to-one",
      "otherEntityField": "id",
      "otherEntityRelationshipName": "listCart"
    }
  ],
  "fields": [
    {
      "fieldName": "amount",
      "fieldType": "Integer"
    },
    {
      "fieldName": "description",
      "fieldType": "String"
    }
  ],
  "changelogDate": "20210411133821",
  "dto": "no",
  "searchEngine": false,
  "service": "serviceClass",
  "entityTableName": "list_cart",
  "databaseType": "sql",
  "readOnly": false,
  "jpaMetamodelFiltering": false,
  "pagination": "pagination"
}
