{
  "fluentMethods": true,
  "clientRootFolder": "",
  "relationships": [
    {
      "relationshipName": "orders",
      "otherEntityName": "orders",
      "relationshipType": "many-to-one",
      "otherEntityField": "id",
      "otherEntityRelationshipName": "orderProduct"
    },
    {
      "relationshipName": "listCart",
      "otherEntityName": "listCart",
      "relationshipType": "many-to-one",
      "otherEntityField": "id",
      "otherEntityRelationshipName": "orderProduct"
    }
  ],
  "fields": [
    {
      "fieldName": "description",
      "fieldType": "String"
    }
  ],
  "changelogDate": "20210320022957",
  "dto": "no",
  "searchEngine": false,
  "service": "serviceClass",
  "entityTableName": "order_product",
  "databaseType": "sql",
  "readOnly": false,
  "jpaMetamodelFiltering": true,
  "pagination": "pagination"
}
